产品名称: iOS SDK
发布版本: iOS_SDK_version: 6.2.0.5
研发人 : 袁迪
定版日期: 2023.12.21
使用范围: 通用版本
SDK依赖:
1.develop分支 ytx_ccpsdk: v6.3.0.1
2.ecmedia_version v3.0.26

问题修复
1.群公告字数限制由200改为2000
----------

产品名称: iOS SDK
发布版本: iOS_SDK_version: 6.2.0.4
研发人 : 李晓俊
定版日期: 2022.08.10
使用范围: 通用版本
SDK依赖:
1.develop分支 ytx_ccpsdk: v6.3.0.1
2.ecmedia_version v3.0.26

问题修复
1.接收超大数据断连优化处理
----------
产品名称: iOS SDK
发布版本: iOS_SDK_version: 6.2.0.2
研发人 : 李晓俊
定版日期: 2022.05.31
使用范围: 通用版本
SDK依赖:
1.develop分支 ytx_ccpsdk: v5.6.7
2.ecmedia_version v3.0.26

问题修复
1.媒体库更新
----------
产品名称: iOS SDK
发布版本: iOS_SDK_version: 6.2.0.1
研发人 : 李晓俊
定版日期: 2022.05.24
使用范围: 通用版本
SDK依赖:
1.develop分支 ytx_ccpsdk: v5.6.7
2.ecmedia_version v3.0.26

问题修复
1.撤回消息没有昵称
-------------------------------------
产品名称: iOS SDK
发布版本: iOS_SDK_version: 6.2.0.0
研发人 : 王凯
定版日期: 2022.03.07
使用范围: 通用版本
SDK依赖:
1.develop分支 ytx_ccpsdk: v5.6.6.5
2.ecmedia_version v3.0.26

新增功能
1.查询/搜索会议室改造、新增获取自己的会议室预定列表、获取会议室预定设置信息等接口
2.会议开启屏幕共享
3.会议信息新增会议分享链接、取消会议室预定接口去掉confRoomId
4.会议信息接口改造
5.会议列表接口改造
6.新增会议室通知
7.新增切换服务器环境新增直接设置服务器地址
8.消息发送或接收的时间(发送消息是消息发送成功后,服务器应答返回时间，接收消息是服务器时间)
9.更新会议接口改造
10.其它功能接口调整

问题修复
1.修复已知问题

-------------------------------------------------------------
产品名称: iOS SDK
发布版本: iOS_SDK_version: 5.6.4.26
研发人 : 王凯
定版日期: 2021.09.03
使用范围: 通用版本
SDK依赖:
1.develop分支 ytx_ccpsdk: v5.6.5.2

新增功能
1.大群功能

问题修复
1.解决音视频媒体统计数据问题

-------------------------------------------------------------

产品名称: iOS SDK
发布版本: iOS_SDK_version: 5.6.4.22
研发人 : 王凯
定版日期: 2021.07.30
14使用范围: 通用版本
SDK依赖:
1.develop分支 ytx_ccpsdk: v5.6.5.2

新增功能
1.新增创建预约会议时的通知
2.新增回复应用消息需要的字段replyMsgFlag和服务端消息id

问题修复
1.解决屏幕共享镜像问题

-------------------------------------------------------------
产品名称: iOS SDK
发布版本: iOS_SDK_version: 5.6.4.19
研发人 : 李晓杰
定版日期: 2021.05.24
14使用范围: 通用版本
SDK依赖:
1.develop分支 ytx_ccpsdk: v5.6.5.0 8d99061c

新增功能
1.新增网络状态接口。
2.群通知新增pushQuitGroupMsg。
3.新增音视频加密。
-------------------------------------------------------------
产品名称: iOS SDK
发布版本: iOS_SDK_version: 5.6.4.18
研发人 : 李晓杰
定版日期: 2021.05.07
14使用范围: 通用版本
SDK依赖:
1.develop分支 ytx_ccpsdk: v5.6.4.3

问题修复
1.解决会议死锁问题。
-------------------------------------------------------------
产品名称: iOS SDK
发布版本: iOS_SDK_version: 5.6.4.17
研发人 : 李晓杰
定版日期: 2021.04.29
14使用范围: 通用版本
SDK依赖:
1.develop分支 ytx_ccpsdk: v5.6.4.3

新增功能 
1.会议增加顺振功能seqCall
2.群管理新增showNickName pushQuitGroupMsg设置方法
3.群通知新增grouptype
-------------------------------------------------------------
产品名称: iOS SDK
发布版本: iOS_SDK_version: 5.6.4.16
研发人 : 李晓杰
定版日期: 2021.03.9
14使用范围: 通用版本
SDK依赖:
1.develop分支 ytx_ccpsdk: v5.6.4

新增功能 
1.登录新增comId可选。
-------------------------------------------------------------
产品名称: iOS SDK
发布版本: iOS_SDK_version: 5.6.4.15
研发人 : 李晓杰
定版日期: 2021.02.25
14使用范围: 通用版本
SDK依赖:
1.develop分支 ytx_ccpsdk: v5.6.4

问题修复
1.视频消息旋转角度不对
2.文件消息增加线程保护
-------------------------------------------------------------
产品名称: iOS SDK
产品名称: iOS SDK
发布版本: iOS_SDK_version: 5.6.4.14
研发人 : 李晓杰
定版日期: 2021.01.25
14使用范围: 通用版本
SDK依赖:
1.develop分支 ytx_ccpsdk: v5.6.3.11

新增功能 
1. SDK新增UserStateInviteTimeout = 0x00080000 超时状态， inviteResult新增Action
-------------------------------------------------------------
产品名称: iOS SDK
发布版本: iOS_SDK_version: 5.6.4.13
研发人 : 李晓杰
定版日期: 2021.01.25
14使用范围: 通用版本
SDK依赖:
1.develop分支 ytx_ccpsdk: v5.6.3.11

新增功能 
1. 增上报业务企业ID号接口 setDeviceInfo
-------------------------------------------------------------
产品名称: iOS SDK
发布版本: iOS_SDK_version: 5.6.4.12
研发人 : 李晓杰
定版日期: 2021.01.15
14使用范围: 通用版本
SDK依赖:
1.develop分支 ytx_ccpsdk: v5.6.3.11
-------------------------------------------------------------
产品名称: iOS SDK
发布版本: iOS_SDK_version: 5.6.4.11
研发人 : 李晓杰
定版日期: 2020.12.16
14使用范围: 通用版本
SDK依赖:
1.develop分支 ytx_ccpsdk: v5.6.3.8

-------------------------------------------------------------
产品名称: iOS SDK
发布版本: iOS_SDK_version: 5.6.4.10
研发人 : 李晓杰
定版日期: 2020.12.14
14使用范围: 通用版本
SDK依赖:
1.develop分支 ytx_ccpsdk: v5.6.3.8

新增功能 
1.`ECConferenceInviteResultNotification`新增members属性 用于区分操作端

2.`ECConferenceNotification` 新增`isSquare`,判断是否为九宫格会议

3.新增 `ECConferenceCountDownNotification`类，用于会议剩3分钟倒计时,自动续时时无此通知。

-------------------------------------------------------------
产品名称: iOS SDK
发布版本: iOS_SDK_version: 5.6.4
研发人 : 王凯
定版日期: 2020.11.17
14使用范围: 通用版本
SDK依赖:
1.develop分支 ytx_ccpsdk: v5.6.3.5

新增功能 
1. 创建会议新增autoLive开启直播功能

-------------------------------------------------------------
产品名称: iOS SDK
发布版本: iOS_SDK_version: 5.6.3.4
研发人 : 李晓杰
定版日期: 2020.09.22
14使用范围: 通用版本
SDK依赖:
1.develop分支 ytx_ccpsdk: v5.6.3

新增功能 
1. ECConferenceInfo里ECConferenceType新增九宫格类型
2. ECProposerMsg里新增admin和adminNickName
问题
1. 信令层clintIp字段有误
-------------------------------------------------------------
产品名称: iOS SDK
发布版本: iOS_SDK_version: 5.6.3.3
研发人 : 李晓杰
定版日期: 2020.09.17
14使用范围: 通用版本
SDK依赖:
1.develop分支 ytx_ccpsdk: v5.6.3

新增功能 
1. 新增群组新增是否需要审核属性 和登录接口新增clintIp
2. 新增设置音频增益方法
-------------------------------------------------------------
产品名称: iOS SDK
发布版本: iOS_SDK_version: 5.6.3.2
研发人 : 李晓杰
定版日期: 2020.09.08
14使用范围: 通用版本
SDK依赖:
1.develop分支 ytx_ccpsdk: v5.6.3

问题修复 仅更换了媒体库和对应信令
1, 解决屏幕共享崩溃的问题 工单号：17758
2, 解决结束白板后崩溃的问题  17747 这也是pc的修改
-------------------------------------------------------------
产品名称: iOS SDK
发布版本: iOS_SDK_version: 5.6.3.1
研发人 : 李晓杰
定版日期: 2020.08.31
14使用范围: 通用版本
SDK依赖:
1.develop分支 ytx_ccpsdk: v5.6.2

问题修复
1、会话列表显示乱序
2.更换媒体修复崩溃
-------------------------------------------------------------
产品名称: iOS SDK
发布版本: iOS_SDK_version: 5.6.3
研发人 : 李晓杰
定版日期: 2020.08.26
14使用范围: 通用版本
SDK依赖:
1.develop分支 ytx_ccpsdk: v5.6.2

问题修复
1、IOS后台接收不到会议结束通知。
新增功能
1、群组里新增九宫格会议通知。
-------------------------------------------------------------
产品名称: iOS SDK
发布版本: iOS_SDK_version: 5.6.2
研发人 : 李晓杰
定版日期: 2020.08.06
14使用范围: 通用版本
SDK依赖:
1.v3p2p分支 ytx_ccpsdk: v5.5.3
新增功能
1、增加了版本号的打印； 2、同步pc代码修改了字段，保持字段与信令层一致；3、增加一些监控崩溃的日志。
-------------------------------------------------------------
产品名称: iOS SDK
发布版本: iOS_SDK_version: 5.6.2
研发人 : 李晓杰
定版日期: 2020.08.04
14使用范围: 通用版本
SDK依赖:
1.v3p2p分支 ytx_ccpsdk: v5.5.3
新增功能
1.修复点对点偶现卡死
2.更换媒体3.0.1版本
-------------------------------------------------------------
产品名称: iOS SDK
发布版本: iOS_SDK_version: 5.6.0
研发人 : 李晓杰
定版日期: 2020.07.04
14使用范围: 通用版本
SDK依赖:
1.ytx_ccpsdk: v5.6.0
新增功能
1.媒体库修复点对点
-------------------------------------------------------------
产品名称: iOS SDK
发布版本: iOS_SDK_version: 5.5.4
研发人 : 李晓杰
定版日期: 2020.06.19
14使用范围: 通用版本
SDK依赖:
1.ytx_ccpsdk: v5.5.3

新增功能
1.V3媒体库
-------------------------------------------------------------
产品名称: iOS SDK
发布版本: iOS_SDK_version: 5.5.3.1
研发人 : 李晓杰
定版日期: 2020.05.28
14使用范围: 通用版本
SDK依赖:
1.ytx_ccpsdk: v5.5.3
2.ecmedia_version: v2.3.3.21


新增功能
1. 1.邀请加入群组2.踢出群组成员3.修改成员名片4.禁言操作5.设置成员角色,6.修改群组属性 操作通知新增admin和adminNickName
2. ECEnumDefs.h 新增网页枚举值

问题修复
1. 去掉sdk isread复制，解决未读消息显示已读 
-------------------------------------------------------------
产品名称: iOS SDK
发布版本: iOS_SDK_version: 5.5.3
研发人 : 李晓杰
定版日期: 2020.05.14
14使用范围: 通用版本
SDK依赖:
1.ytx_ccpsdk: v5.5.3
2.ecmedia_version: v2.3.3.21

问题修复
1.解决有些情况会导致群组列表和群组成员会循环查询
2.群组列表接口也能查到 仅群主和管理员可管理群，可at所有人属性, 普通成员是否可邀请人入群，全员禁言属性了;
3.媒体库版本回退，解决低版本Xcode无法编译
-------------------------------------------------------------
产品名称: iOS SDK
发布版本: iOS_SDK_version: 5.5.2.1
研发人 : 李晓杰
定版日期: 2020.04.15
14使用范围: 通用版本
SDK依赖:
1.ytx_ccpsdk: v5.5.2
2.ecmedia_version: v2.3.3.27

问题修复
1.iOS 13.4SDK以下版本编译不通过

-------------------------------------------------------------
产品名称: iOS SDK
发布版本: iOS_SDK_version: 5.5.2
研发人 : 李晓杰
定版日期: 2020.04.15
14使用范围: 通用版本
SDK依赖:
1.ytx_ccpsdk: v5.5.2
2.ecmedia_version: v2.3.3.27

问题修复
1.#176209 断网下发送文件，还是显示已发送

新增功能
1.支持仅群主和管理员可管理群，可at所有人属性, 普通成员是否可要人入群;
2.群组增加全员禁言属性;
3.设置群管理员新增errorDescription描述
-------------------------------------------------------------
产品名称: iOS SDK
发布版本: iOS_SDK_version: 5.5.1
研发人 : 李晓杰
定版日期: 2020.03.04
使用范围: 通用版本
SDK依赖:
1.ytx_ccpsdk: v5.5.1
2.ecmedia_version: v2.3.3.21

问题修复
1.pushkit兼容iOS13
2.支持断点下载
3.媒体库解决语音激励功能成员列表不上报的问题
4.单人群管理，单人群禁言兼容旧版本groupserver
-------------------------------------------------------------
产品名称: iOS SDK
产品名称: iOS SDK
发布版本: iOS_SDK_version: 5.5.0
研发人 : 李晓杰
定版日期: 2020.01.15
使用范围: 通用版本
SDK依赖:
1.ytx_ccpsdk: v5.4.14
2.ecmedia_version: v2.3.3.20

新增功能
1.会议音频提供 是否sdk自动控制 开关
2.媒体库视频码率提供 手动和自动调节开关
3.会议新增布局参数
4.新增设置业务超时事件和文件发送应答超时时间接口
问题修复
1.视频文件无法断点续传
2.断点续传文件msgid变更了
3.收到小消息版本号不再回滚
-------------------------------------------------------------
产品名称: iOS SDK
发布版本: iOS_SDK_version: 5.4.15
研发人 : 李晓杰
定版日期: 2020.01.06
使用范围: 通用版本
SDK依赖:
1.ytx_ccpsdk: v5.4.14
2.ecmedia_version: v2.3.3.20

新增功能
1.会议音频提供 是否sdk自动控制 开关
2.媒体库视频码率提供 手动和自动调节开关
3.会议新增布局参数
4.新增设置业务超时事件和文件发送应答超时时间接口
问题修复
1.视频文件无法断点续传
2.断点续传文件msgid变更了
-------------------------------------------------------------
产品名称: iOS SDK
发布版本: iOS_SDK_version: 5.4.14.3
研发人 : 李晓杰
定版日期: 2019.10.11
使用范围: 通用版本
SDK依赖:
1.ytx_ccpsdk: v5.4.12.22
2.ecmedia_version: v2.3.3.9

新增功能
1.ECGroupMember新增memberRole属性
-------------------------------------------------------------
产品名称: iOS SDK
发布版本: iOS_SDK_version: 5.4.14.2
研发人 : 李晓杰
定版日期: 2019.10.11
使用范围: 通用版本
SDK依赖:
1.ytx_ccpsdk: v5.4.12.21
2.ecmedia_version: v2.3.3.9

新增功能
1.ECGroupMember新增memberRole属性
-------------------------------------------------------------
产品名称: iOS SDK
发布版本: iOS_SDK_version: 5.4.14.1
研发人 : 李晓杰
定版日期: 2019.10.10
使用范围: 通用版本
SDK依赖:
1.ytx_ccpsdk: v5.4.12.20
2.ecmedia_version: v2.3.3.9

新增功能
1.优化断网重练
-------------------------------------------------------------
产品名称: iOS SDK
发布版本: iOS_SDK_version: 5.4.14.0
研发人 : 李晓杰
定版日期: 2019.09.25
使用范围: 通用版本

SDK依赖:
1.ytx_ccpsdk: v5.4.12.19
2.ecmedia_version: v2.3.3.9

新增功能
1.批量群设置用户角色。
2.群禁言功能。
3.单人禁言，群组单人权限设置 内部接口变更。
4.新增用户在线状态变更代理方法。
5.离线消息单次默认拉取次数改为10。
6.devicetoken兼容iOS13

问题修复
1.群主转让崩溃
-------------------------------------------------------------
产品名称: iOS SDK
发布版本: iOS_SDK_version: 5.4.13.5
研发人 : 李晓杰
定版日期: 2019.08.27
使用范围: 通用版本

SDK依赖:
1.ytx_ccpsdk: v5.4.12.18
2.ecmedia_version: v2.3.3.9

新增功能
1.群组信息修改里新增groupPhoto字段
2.新增会议通知note 26状态消息对象 IM消息类型
3.添加会议通用接口
问题修复
1.#155761 #155762 上海电信项目 socket重复登录 导致消息发送失败 和 没有回调 问题
2.修复切换账号后可能丢消息
-------------------------------------------------------------
产品名称: iOS SDK
发布版本: iOS_SDK_version: 5.4.13.4
研发人 : 李晓杰
定版日期: 无
使用范围: 通用版本

SDK依赖:
1.ytx_ccpsdk: v5.4.12.11
2.ecmedia_version: v2.3.3.7

问题修复
1.#155761 #155762 上海电信项目 socket重复登录 导致消息发送失败 和 没有回调 问题
-------------------------------------------------------------
产品名称: iOS SDK
发布版本: iOS_SDK_version: 5.4.13.3
研发人 : 李晓杰
定版日期: 无
使用范围: 通用版本

SDK依赖:
1.ytx_ccpsdk: v5.4.12.6
2.ecmedia_version: v2.3.3.7

问题修复
1.修改消息上抛机制

新增功能
1.可从指定消息版本号起拉取消息 ECDevice->login ECLoginInfo->version字段
2.离线消息单次拉取条数可配置 默认50条 ECDevice->login ECLoginInfo->pullOutCount字段
-------------------------------------------------------------
产品名称: iOS SDK
发布版本: iOS_SDK_version: 5.4.13.2
研发人 : 李晓杰
定版日期: 无
使用范围: 通用版本

SDK依赖:
1.ytx_ccpsdk: v5.4.12.6
2.ecmedia_version: v2.3.3.7

问题修复
1.收取离线消息时，消息推送未完成时计时器就销毁了
2.离线消息1000条一次收取，提高速度
3.落地电话收到180后未播放本地语音消息

新增功能
1.撤回消息方法 新增receiverId 字段。 ECMessageRevokeNotifyMsg->receiverId
2.会议信息更新通知添加最大人数字段 创建会议添加当前可用的最大并发用户数字段 ECConferenceInfo->suggestMaxMember